sku,name,attribute_set,price,tax_class,weight,categories,visibility,status,qty,out_of_stock_threshold,is_in_stock,country_of_manufacture,alcoholic_strength,volume,origin,freeze,grape_type,material,ship_from,product_type,url_key
leverano-riserva,Leverano Riserva,Default,1699000,Taxable Goods,,Rượu vang đỏ,"Catalog, Search",Enabled,5,2,1,Italy,14%,750ml,Italy,no,,,Hà Nội,simple,leverano-riserva
aves-del-sur-sauvignon-blanc,Aves Del Sur Sauvignon Blanc,Default,3600000,Taxable Goods,,Rượu vang trắng,"Catalog, Search",Enabled,4,1,1,Chile,25%,1l,Chile,yes,"nho loại 2, nho loại 4, nho loại 5",,"Hà Nội, Hồ Chí Minh",configurable,aves-del-sur-sauvignon-blanc
dr-zenzen,Dr.zenzen,Default,1800000,Taxable Goods,,Rượu vang trắng,"Catalog, Search",Enabled,4,2,1,Germany,16%,1.5l,Germany,yes,,,Hồ Chí Minh,simple,dr-zenzen
gia-do-ruou-go,Giá Đỡ Rượu Gỗ,Default,400000,Taxable Goods,,Phụ kiện + Giá đỡ rượu,"Catalog, Search",Enabled,7,3,1,,,,no,,Gỗ,Hồ Chí Minh,simple,gia-do-ruou-go
hop-dung-ruou-doi,Hộp Đựng Rượu Đôi,Default,360000,Taxable Goods,,Phụ kiện + Hộp đựng rượu,"Catalog, Search",Enabled,10,2,1,,,,no,,Da,"Hà Nội, Hồ Chí Minh",simple,hop-dung-ruou-doi
